Andrewâ€™s Two-Day R Course - Day Two
…
## # A tibble: 4 x 4
## # Groups:   Prime [?]
##   Prime    Target    mean    sd
##   <fct>    <fct>    <dbl> <dbl>
## 1 Negative Negative  321.  167.
## 2 Negative Positive  376.  219.
## 3 Positive Negative  361.  191.
## 4 Positive Positive  337.  203.

data %>% filter(is.na(Time)) 

## # A tibble: 121 x 5
##    Subject Item   Time Prime    Target  
##    <fct>   <fct> <dbl> <fct>    <fct>   
##  1 1       29       NA Positive Positive
##  2 4       27       NA Negative Negative
##  3 4       24       NA Negative Positive
##  4 5       24       NA Negative Positive
##  5 5       30       NA Positive Negative
##  6 6       19       NA Negative Negative
##  7 6       12       NA Negative Positive
##  8 6       14       NA Positive Negative
##  9 7       3        NA Negative Negative
## 10 7       11       NA Negative Negative
## # ... with 111 more rows
…
